<?xml version="1.0" encoding="UTF-8" standalone="no"?>
<!-- Created with Inkscape (http://www.inkscape.org/) -->

<svg
   xmlns:dc="http://purl.org/dc/elements/1.1/"
   xmlns:cc="http://creativecommons.org/ns#"
   xmlns:rdf="http://www.w3.org/1999/02/22-rdf-syntax-ns#"
   xmlns:svg="http://www.w3.org/2000/svg"
   xmlns="http://www.w3.org/2000/svg"
   xmlns:sodipodi="http://sodipodi.sourceforge.net/DTD/sodipodi-0.dtd"
   xmlns:inkscape="http://www.inkscape.org/namespaces/inkscape"
   version="1.1"
   id="svg815"
   xml:space="preserve"
   width="565.64655"
   height="364.48526"
   viewBox="0 0 565.64657 364.48526"
   sodipodi:docname="wind_rel_power.svg"
   inkscape:version="0.92.4 (5da689c313, 2019-01-14)"><metadata
     id="metadata821"><rdf:RDF><cc:Work
         rdf:about=""><dc:format>image/svg+xml</dc:format><dc:type
           rdf:resource="http://purl.org/dc/dcmitype/StillImage" /><dc:title></dc:title></cc:Work></rdf:RDF></metadata><defs
     id="defs819"><clipPath
       clipPathUnits="userSpaceOnUse"
       id="clipPath849"><path
         d="M 116.76,147.6 H 750.481 V 537 H 116.76 Z"
         id="path847"
         inkscape:connector-curvature="0" /></clipPath><clipPath
       clipPathUnits="userSpaceOnUse"
       id="clipPath887"><path
         d="M 37.44,66 H 778.68 V 552.96 H 37.44 Z"
         id="path885"
         inkscape:connector-curvature="0" /></clipPath></defs><sodipodi:namedview
     pagecolor="#ffffff"
     bordercolor="#666666"
     borderopacity="1"
     objecttolerance="10"
     gridtolerance="10"
     guidetolerance="10"
     inkscape:pageopacity="0"
     inkscape:pageshadow="2"
     inkscape:window-width="1920"
     inkscape:window-height="1001"
     id="namedview817"
     showgrid="false"
     fit-margin-top="0"
     fit-margin-left="0"
     fit-margin-right="0"
     fit-margin-bottom="0"
     inkscape:zoom="1.094604"
     inkscape:cx="309.64385"
     inkscape:cy="140.97933"
     inkscape:window-x="-9"
     inkscape:window-y="-9"
     inkscape:window-maximized="1"
     inkscape:current-layer="g823" /><g
     id="g823"
     inkscape:groupmode="layer"
     inkscape:label="wind_rel_power"
     transform="matrix(1.3333333,0,0,-1.3333333,-256.40121,602.91559)">

<g
   id="g864"
   transform="matrix(0.6,0,0,0.6,161.76735,126.20189)"><path
     d="m 116.851,212.9999 h 632.992 m -632.992,64.8 h 632.992 m -632.992,64.8 h 632.992 m -632.992,64.8 h 632.992 m -632.992,64.8 h 632.992 m -632.992,64.773 h 632.992"
     style="fill:none;stroke:#d9d9d9;stroke-width:0.75;stroke-linecap:butt;stroke-linejoin:round;stroke-miterlimit:10;stroke-dasharray:none;stroke-opacity:1"
     id="path829"
     inkscape:connector-curvature="0" /><path
     d="m 207.24,536.9725 v -388.718 m 90.48,388.718 v -388.718 m 90.36,388.718 v -388.718 m 90.48,388.718 v -388.718 m 90.48,388.718 v -388.718 m 90.36,388.718 v -388.718 m 90.443,388.718 v -388.718"
     style="fill:none;stroke:#d9d9d9;stroke-width:0.75;stroke-linecap:butt;stroke-linejoin:round;stroke-miterlimit:10;stroke-dasharray:none;stroke-opacity:1"
     id="path833"
     inkscape:connector-curvature="0" /><path
     d="m 116.851,148.2547 v 388.718"
     style="fill:none;stroke:#bfbfbf;stroke-width:0.75;stroke-linecap:butt;stroke-linejoin:round;stroke-miterlimit:10;stroke-dasharray:none;stroke-opacity:1"
     id="path837"
     inkscape:connector-curvature="0" /><path
     d="M 116.851,148.2547 H 749.843"
     style="fill:none;stroke:#bfbfbf;stroke-width:0.75;stroke-linecap:butt;stroke-linejoin:round;stroke-miterlimit:10;stroke-dasharray:none;stroke-opacity:1"
     id="path841"
     inkscape:connector-curvature="0" /><g
     id="g845"
     clip-path="url(#clipPath849)"><g
       id="g851"
       transform="translate(116.851,148.2547)"><path
         d="m 0,0 h 36.149 l 18.12,4.985 18.12,11.52 18,15.84 18.12,23.04 18.12,33.12 18,44.64 18.12,54 18.12,61.2 18.12,48.24 18,23.76 18.12,3.586 h 90.48 l 18,-5.026 18.12,-10.8 180.84,-135.36 V 0 h 90.443"
         style="fill:none;stroke:#0070c0;stroke-width:2.25070882;stroke-linecap:round;stroke-linejoin:round;stroke-miterlimit:10;stroke-dasharray:none;stroke-opacity:1"
         id="path853"
         inkscape:connector-curvature="0" /></g></g><text
     id="text871"
     style="font-variant:normal;font-weight:normal;font-stretch:normal;font-size:18px;font-family:Calibri;-inkscape-font-specification:Calibri;writing-mode:lr-tb;fill:#595959;fill-opacity:1;fill-rule:nonzero;stroke:none"
     transform="matrix(1,0,0,-1,91.0251,143.076)"><tspan
       id="tspan855"
       y="0"
       x="0">0</tspan><tspan
       id="tspan857"
       sodipodi:role="line"
       y="-64.781998"
       x="-13.662 -4.5359998 0.023399999">0.2</tspan><tspan
       id="tspan859"
       sodipodi:role="line"
       y="-129.564"
       x="-13.662 -4.5359998 0.023399999">0.4</tspan><tspan
       id="tspan861"
       sodipodi:role="line"
       y="-194.34599"
       x="-13.662 -4.5359998 0.023399999">0.6</tspan><tspan
       id="tspan863"
       sodipodi:role="line"
       y="-259.12799"
       x="-13.662 -4.5359998 0.023399999">0.8</tspan><tspan
       id="tspan865"
       y="-323.91"
       x="0">1</tspan><tspan
       id="tspan867"
       sodipodi:role="line"
       y="-388.69199"
       x="-13.662 -4.5359998 0.023399999">1.2</tspan><tspan
       id="tspan869"
       sodipodi:role="line"
       y="23.436001"
       x="21.275999 111.708 197.56799 206.694 288 297.12601 378.43201 387.55801 468.86401 477.98999 559.29602 568.422 649.72803 658.854">05101520253035</tspan></text>
<text
     y="64.519997"
     x="274.16611"
     id="text875"
     style="font-variant:normal;font-weight:normal;font-stretch:normal;font-size:20.04000092px;font-family:Calibri;-inkscape-font-specification:Calibri;writing-mode:lr-tb;fill:#595959;fill-opacity:1;fill-rule:nonzero;stroke:none"
     transform="matrix(0,1,1,0,0,0)"><tspan
       id="tspan873"
       sodipodi:role="line"
       y="64.519997"
       x="274.16611 284.72717 294.68707 299.24615 308.60684 315.32626 319.89539 328.65488 338.61475 343.18387 351.58063 361.5405 366.10962 373.67072 380.39014 390.94919 401.51028">Relative Leistung</tspan></text>
<text
     y="-91.273003"
     x="319.25671"
     id="text879"
     style="font-variant:normal;font-weight:normal;font-stretch:normal;font-size:20.04000092px;font-family:Calibri;-inkscape-font-specification:Calibri;writing-mode:lr-tb;fill:#595959;fill-opacity:1;fill-rule:nonzero;stroke:none"
     transform="scale(1,-1)"><tspan
       id="tspan877"
       sodipodi:role="line"
       y="-91.273003"
       x="319.25671 337.13638 341.69748 352.25656 362.81564 372.17633 382.1362 389.93176 398.45279 408.8916 423.18015 427.74124 438.30032 448.74115 453.29025 462.77115 471.16992 481.12979 485.69092 492.41031 496.61871 501.16782 511.72888 516.28796 532.24786 539.68872">Windgeschwindigkeit in m/s</tspan></text>
</g>
</g></svg>